NBA Tanking Analysis
…
Player Weighting

We decided to multiply a players rating by the number of minutes that they played in a game to determine how much they contribute in value to a team. Then for each teams game on a given date, we summed up each players weighted rating to determine the overall team rating for that game.

teamstrength <- merged %>%
  mutate(WeightedRating = Minutes*Rating, DateFormat=as.Date(Date, "%m/%d/%Y")) %>%
  group_by(DateFormat, Team) %>%
  summarize(GameTeamStrength=sum(WeightedRating))
teamstrength

## # A tibble: 2,460 x 3
## # Groups:   DateFormat [?]
##    DateFormat Team  GameTeamStrength
##    <date>     <fct>            <int>
##  1 2017-10-17 BOS              19808
##  2 2017-10-17 CLE              19347
##  3 2017-10-17 GS               20326
##  4 2017-10-17 HOU              19727
##  5 2017-10-18 ATL              18452
##  6 2017-10-18 BKN              18546
##  7 2017-10-18 BOS              19523
##  8 2017-10-18 CHA              18394
##  9 2017-10-18 DAL              18489
## 10 2017-10-18 DEN              19408
## # ... with 2,450 more rows
…
